{
	"filters": [
		"@founddildo",
		"dildo finder",
		"@ebay",
		"found on ebay",
		"baggins",
		"found andy",
		"fish",
		"lil dude",
		"Little dude",
		"dildo_rider",
		"plot twist",
		"#hukd",
		"fish",
		"relationship",
		"#teenporn0",
		"#BlockRanked",
		"@pur3p3rfection",
		"rima and nora", "coeds",
		"found out",
		"nine years",
		"xojane",
		"lena_cd",
		"political sculptor",
		"kortney",
		"dubsmash",
		"azusa",
		"hitachi",
		"brave enough",
		"holy shit dude I found a dildo", "holy shit dude",
		"xviii", "18th", "250 year", "250-year", "250year", "happyplace.someecards.com",
		"r/funny", "reddit",
		"cock drawer", "porn", "xxx",
		"probation",
		"@youtube", "i liked a",
		"comment section",
		"rabbi",
		"in a tree",
		"isis",
		"lingerie, adult toys",
		"heated dildo",
		"mom's huge dildo",
		"went to a concert",
		"under the sink",
		"shoes from amazon",
		"hundreds of dildos",
		"higher setting",
		"lightsaber", "9gag",
		"macy gray",
		"crystal healing", "healing crystal",
		"green vibrator",
		"he found his moms dildo", "he found his mom's dildo", "son found moms dildo",
		"I found her",
		"bl00d-sugar",
		"kardashian",
		"orphans", "bake sale",
		"her charger",
		"portugal",
		"fuck", "cum", "porn",
		"amazon",
		"thrower",
		"value village",
		"battered", "slapped", "straight 30",
		"my dog just found my sisters dildo",
		"me when my mom",
		"found your mom's buttplug",
		"buttplug for vegans",
		"hookupclubxxx", "bit.ly/"
	],
	"userfilters": [
		"dildo",
		"vibrator",
		"buttplug",
		"youtube",
		"roycropper"
	],
	"dice": {
		"media": 1.0,
		"urls": 0.8,
		"mentions": 0.5,
		"base": 0.7
	}
}